^D:\AIUB 11TH\GRAPHICS\LAB\FINALPROJECT\FINALPROJECT\DEBUG\IMAGELOADER.OBJ|D:\AIUB 11TH\GRAPHICS\LAB\FINALPROJECT\FINALPROJECT\DEBUG\SOURCE.OBJ
D:\AIUB 11TH\GRAPHICS\LAB\FINALPROJECT\DEBUG\FINALPROJECT.ILK
D:\AIUB 11TH\GRAPHICS\LAB\FINALPROJECT\DEBUG\FINALPROJECT.EXE
D:\AIUB 11TH\GRAPHICS\LAB\FINALPROJECT\DEBUG\FINALPROJECT.PDB
